%!PS-Adobe-3.0 EPSF-3.0
%%Title: A_factor.eps
%%Creator: Matplotlib v3.5.1, https://matplotlib.org/
%%CreationDate: Thu Jan 27 17:50:22 2022
%%Orientation: portrait
%%BoundingBox: 75 223 537 569
%%HiResBoundingBox: 75.600000 223.200000 536.400000 568.800000
%%EndComments
%%BeginProlog
/mpldict 11 dict def
mpldict begin
/_d { bind def } bind def
/m { moveto } _d
/l { lineto } _d
/r { rlineto } _d
/c { curveto } _d
/cl { closepath } _d
/ce { closepath eofill } _d
/box {
      m
      1 index 0 r
      0 exch r
      neg 0 r
      cl
    } _d
/clipbox {
      box
      clip
      newpath
    } _d
/sc { setcachedevice } _d
%!PS-Adobe-3.0 Resource-Font
%%Creator: Converted from TrueType to Type 3 by Matplotlib.
10 dict begin
/FontName /DejaVuSans def
/PaintType 0 def
/FontMatrix [0.00048828125 0 0 0.00048828125 0 0] def
/FontBBox [-2090 -948 3673 2524] def
/FontType 3 def
/Encoding [/A /period /zero /one /two /three /four /five /six /seven /eight /nine /equal] def
/CharStrings 14 dict dup begin
/.notdef 0 def
/A{1401 0 16 0 1384 1493 sc
700 1294 m
426 551 l
975 551 l
700 1294 l

586 1493 m
815 1493 l
1384 0 l
1174 0 l
1038 383 l
365 383 l
229 0 l
16 0 l
586 1493 l

ce} _d
/period{651 0 219 0 430 254 sc
219 254 m
430 254 l
430 0 l
219 0 l
219 254 l

ce} _d
/zero{1303 0 135 -29 1167 1520 sc
651 1360 m
547 1360 469 1309 416 1206 c
364 1104 338 950 338 745 c
338 540 364 387 416 284 c
469 182 547 131 651 131 c
756 131 834 182 886 284 c
939 387 965 540 965 745 c
965 950 939 1104 886 1206 c
834 1309 756 1360 651 1360 c

651 1520 m
818 1520 946 1454 1034 1321 c
1123 1189 1167 997 1167 745 c
1167 494 1123 302 1034 169 c
946 37 818 -29 651 -29 c
484 -29 356 37 267 169 c
179 302 135 494 135 745 c
135 997 179 1189 267 1321 c
356 1454 484 1520 651 1520 c

ce} _d
/one{1303 0 225 0 1114 1493 sc
254 170 m
584 170 l
584 1309 l
225 1237 l
225 1421 l
582 1493 l
784 1493 l
784 170 l
1114 170 l
1114 0 l
254 0 l
254 170 l

ce} _d
/two{1303 0 150 0 1098 1520 sc
393 170 m
1098 170 l
1098 0 l
150 0 l
150 170 l
227 249 331 356 463 489 c
596 623 679 709 713 748 c
778 821 823 882 848 932 c
874 983 887 1032 887 1081 c
887 1160 859 1225 803 1275 c
748 1325 675 1350 586 1350 c
523 1350 456 1339 385 1317 c
315 1295 240 1262 160 1217 c
160 1421 l
241 1454 317 1478 388 1495 c
459 1512 523 1520 582 1520 c
737 1520 860 1481 952 1404 c
1044 1327 1090 1223 1090 1094 c
1090 1033 1078 974 1055 919 c
1032 864 991 800 930 725 c
913 706 860 650 771 557 c
682 465 556 336 393 170 c

ce} _d
/three{1303 0 156 -29 1139 1520 sc
831 805 m
928 784 1003 741 1057 676 c
1112 611 1139 530 1139 434 c
1139 287 1088 173 987 92 c
886 11 742 -29 555 -29 c
492 -29 428 -23 361 -10 c
295 2 227 20 156 45 c
156 240 l
212 207 273 183 340 166 c
407 149 476 141 549 141 c
676 141 772 166 838 216 c
905 266 938 339 938 434 c
938 522 907 591 845 640 c
784 690 698 715 588 715 c
414 715 l
414 881 l
596 881 l
695 881 771 901 824 940 c
877 980 903 1037 903 1112 c
903 1189 876 1247 821 1288 c
767 1329 689 1350 588 1350 c
533 1350 473 1344 410 1332 c
347 1320 277 1301 201 1276 c
201 1456 l
278 1477 349 1493 416 1504 c
483 1515 547 1520 606 1520 c
759 1520 881 1485 970 1415 c
1059 1346 1104 1252 1104 1133 c
1104 1050 1080 980 1033 923 c
986 866 918 827 831 805 c

ce} _d
/four{1303 0 100 0 1188 1493 sc
774 1317 m
264 520 l
774 520 l
774 1317 l

721 1493 m
975 1493 l
975 520 l
1188 520 l
1188 352 l
975 352 l
975 0 l
774 0 l
774 352 l
100 352 l
100 547 l
721 1493 l

ce} _d
/five{1303 0 158 -29 1124 1493 sc
221 1493 m
1014 1493 l
1014 1323 l
406 1323 l
406 957 l
435 967 465 974 494 979 c
523 984 553 987 582 987 c
749 987 881 941 978 850 c
1075 759 1124 635 1124 479 c
1124 318 1074 193 974 104 c
874 15 733 -29 551 -29 c
488 -29 424 -24 359 -13 c
294 -2 227 14 158 35 c
158 238 l
218 205 280 181 344 165 c
408 149 476 141 547 141 c
662 141 754 171 821 232 c
888 293 922 375 922 479 c
922 583 888 665 821 726 c
754 787 662 817 547 817 c
493 817 439 811 385 799 c
332 787 277 768 221 743 c
221 1493 l

ce} _d
/six{1303 0 143 -29 1174 1520 sc
676 827 m
585 827 513 796 460 734 c
407 672 381 587 381 479 c
381 372 407 287 460 224 c
513 162 585 131 676 131 c
767 131 838 162 891 224 c
944 287 971 372 971 479 c
971 587 944 672 891 734 c
838 796 767 827 676 827 c

1077 1460 m
1077 1276 l
1026 1300 975 1318 923 1331 c
872 1344 821 1350 770 1350 c
637 1350 535 1305 464 1215 c
394 1125 354 989 344 807 c
383 865 433 909 492 940 c
551 971 617 987 688 987 c
838 987 956 941 1043 850 c
1130 759 1174 636 1174 479 c
1174 326 1129 203 1038 110 c
947 17 827 -29 676 -29 c
503 -29 371 37 280 169 c
189 302 143 494 143 745 c
143 981 199 1169 311 1309 c
423 1450 573 1520 762 1520 c
813 1520 864 1515 915 1505 c
967 1495 1021 1480 1077 1460 c

ce} _d
/seven{1303 0 168 0 1128 1493 sc
168 1493 m
1128 1493 l
1128 1407 l
586 0 l
375 0 l
885 1323 l
168 1323 l
168 1493 l

ce} _d
/eight{1303 0 139 -29 1163 1520 sc
651 709 m
555 709 479 683 424 632 c
369 581 342 510 342 420 c
342 330 369 259 424 208 c
479 157 555 131 651 131 c
747 131 823 157 878 208 c
933 260 961 331 961 420 c
961 510 933 581 878 632 c
823 683 748 709 651 709 c

449 795 m
362 816 295 857 246 916 c
198 975 174 1048 174 1133 c
174 1252 216 1347 301 1416 c
386 1485 503 1520 651 1520 c
800 1520 916 1485 1001 1416 c
1086 1347 1128 1252 1128 1133 c
1128 1048 1104 975 1055 916 c
1007 857 940 816 854 795 c
951 772 1027 728 1081 662 c
1136 596 1163 515 1163 420 c
1163 275 1119 164 1030 87 c
942 10 816 -29 651 -29 c
486 -29 360 10 271 87 c
183 164 139 275 139 420 c
139 515 166 596 221 662 c
276 728 352 772 449 795 c

375 1114 m
375 1037 399 976 447 933 c
496 890 564 868 651 868 c
738 868 805 890 854 933 c
903 976 928 1037 928 1114 c
928 1191 903 1252 854 1295 c
805 1338 738 1360 651 1360 c
564 1360 496 1338 447 1295 c
399 1252 375 1191 375 1114 c

ce} _d
/nine{1303 0 129 -29 1159 1520 sc
225 31 m
225 215 l
276 191 327 173 379 160 c
431 147 482 141 532 141 c
665 141 767 186 837 275 c
908 365 948 501 958 684 c
919 627 870 583 811 552 c
752 521 686 506 614 506 c
465 506 346 551 259 641 c
172 732 129 855 129 1012 c
129 1165 174 1288 265 1381 c
356 1474 476 1520 627 1520 c
800 1520 931 1454 1022 1321 c
1113 1189 1159 997 1159 745 c
1159 510 1103 322 991 181 c
880 41 730 -29 541 -29 c
490 -29 439 -24 387 -14 c
335 -4 281 11 225 31 c

627 664 m
718 664 789 695 842 757 c
895 819 922 904 922 1012 c
922 1119 895 1204 842 1266 c
789 1329 718 1360 627 1360 c
536 1360 464 1329 411 1266 c
358 1204 332 1119 332 1012 c
332 904 358 819 411 757 c
464 695 536 664 627 664 c

ce} _d
/equal{1716 0 217 352 1499 930 sc
217 930 m
1499 930 l
1499 762 l
217 762 l
217 930 l

217 522 m
1499 522 l
1499 352 l
217 352 l
217 522 l

ce} _d
end readonly def

/BuildGlyph {
 exch begin
 CharStrings exch
 2 copy known not {pop /.notdef} if
 true 3 1 roll get exec
 end
} _d

/BuildChar {
 1 index /Encoding get exch get
 1 index /BuildGlyph get exec
} _d

FontName currentdict end definefont pop
end
%%EndProlog
mpldict begin
75.6 223.2 translate
460.8 345.6 0 0 clipbox
gsave
0 0 m
460.8 0 l
460.8 345.6 l
0 345.6 l
cl
1.000 setgray
fill
grestore
gsave
57.6 38.016 m
414.72 38.016 l
414.72 304.128 l
57.6 304.128 l
cl
1.000 setgray
fill
grestore
0.800 setlinewidth
1 setlinejoin
2 setlinecap
[] 0 setdash
0.690 setgray
gsave
357.12 266.112 57.6 38.016 clipbox
109.905455 38.016 m
109.905455 304.128 l
stroke
grestore
0 setlinecap
0.000 setgray
gsave
/o {
gsave
newpath
translate
0.8 setlinewidth
1 setlinejoin

0 setlinecap

0 0 m
0 -3.5 l

gsave
0.000 setgray
fill
grestore
stroke
grestore
} bind def
109.905 38.016 o
grestore
gsave
100.905455 23.094125 translate
0.000000 rotate
/DejaVuSans 10.0 selectfont
0.000000 0.064063 moveto
/one glyphshow
6.362305 0.064063 moveto
/zero glyphshow
/DejaVuSans 7.0 selectfont
12.820312 3.892188 moveto
/one glyphshow
grestore
2 setlinecap
0.690 setgray
gsave
357.12 266.112 57.6 38.016 clipbox
182.050909 38.016 m
182.050909 304.128 l
stroke
grestore
0 setlinecap
0.000 setgray
gsave
/o {
gsave
newpath
translate
0.8 setlinewidth
1 setlinejoin

0 setlinecap

0 0 m
0 -3.5 l

gsave
0.000 setgray
fill
grestore
stroke
grestore
} bind def
182.051 38.016 o
grestore
gsave
173.050909 22.094125 translate
0.000000 rotate
/DejaVuSans 10.0 selectfont
0.000000 0.976562 moveto
/one glyphshow
6.362305 0.976562 moveto
/zero glyphshow
/DejaVuSans 7.0 selectfont
12.820312 4.804688 moveto
/three glyphshow
grestore
2 setlinecap
0.690 setgray
gsave
357.12 266.112 57.6 38.016 clipbox
254.196364 38.016 m
254.196364 304.128 l
stroke
grestore
0 setlinecap
0.000 setgray
gsave
/o {
gsave
newpath
translate
0.8 setlinewidth
1 setlinejoin

0 setlinecap

0 0 m
0 -3.5 l

gsave
0.000 setgray
fill
grestore
stroke
grestore
} bind def
254.196 38.016 o
grestore
gsave
245.196364 23.094125 translate
0.000000 rotate
/DejaVuSans 10.0 selectfont
0.000000 0.064063 moveto
/one glyphshow
6.362305 0.064063 moveto
/zero glyphshow
/DejaVuSans 7.0 selectfont
12.820312 3.892188 moveto
/five glyphshow
grestore
2 setlinecap
0.690 setgray
gsave
357.12 266.112 57.6 38.016 clipbox
326.341818 38.016 m
326.341818 304.128 l
stroke
grestore
0 setlinecap
0.000 setgray
gsave
/o {
gsave
newpath
translate
0.8 setlinewidth
1 setlinejoin

0 setlinecap

0 0 m
0 -3.5 l

gsave
0.000 setgray
fill
grestore
stroke
grestore
} bind def
326.342 38.016 o
grestore
gsave
317.341818 23.094125 translate
0.000000 rotate
/DejaVuSans 10.0 selectfont
0.000000 0.064063 moveto
/one glyphshow
6.362305 0.064063 moveto
/zero glyphshow
/DejaVuSans 7.0 selectfont
12.820312 3.892188 moveto
/seven glyphshow
grestore
2 setlinecap
0.690 setgray
gsave
357.12 266.112 57.6 38.016 clipbox
398.487273 38.016 m
398.487273 304.128 l
stroke
grestore
0 setlinecap
0.000 setgray
gsave
/o {
gsave
newpath
translate
0.8 setlinewidth
1 setlinejoin

0 setlinecap

0 0 m
0 -3.5 l

gsave
0.000 setgray
fill
grestore
stroke
grestore
} bind def
398.487 38.016 o
grestore
gsave
389.487273 22.094125 translate
0.000000 rotate
/DejaVuSans 10.0 selectfont
0.000000 0.976562 moveto
/one glyphshow
6.362305 0.976562 moveto
/zero glyphshow
/DejaVuSans 7.0 selectfont
12.820312 4.804688 moveto
/nine glyphshow
grestore
2 setlinecap
0.690 setgray
gsave
357.12 266.112 57.6 38.016 clipbox
57.6 42.632251 m
414.72 42.632251 l
stroke
grestore
0 setlinecap
0.000 setgray
gsave
/o {
gsave
newpath
translate
0.8 setlinewidth
1 setlinejoin

0 setlinecap

-0 0 m
-3.5 0 l

gsave
0.000 setgray
fill
grestore
stroke
grestore
} bind def
57.6 42.6323 o
grestore
/DejaVuSans 10.000 selectfont
gsave

44.240625 38.835376 translate
0.000000 rotate
0.000000 0 m /zero glyphshow
grestore
2 setlinecap
0.690 setgray
gsave
357.12 266.112 57.6 38.016 clipbox
57.6 80.042215 m
414.72 80.042215 l
stroke
grestore
0 setlinecap
0.000 setgray
gsave
/o {
gsave
newpath
translate
0.8 setlinewidth
1 setlinejoin

0 setlinecap

-0 0 m
-3.5 0 l

gsave
0.000 setgray
fill
grestore
stroke
grestore
} bind def
57.6 80.0422 o
grestore
gsave

44.240625 76.245340 translate
0.000000 rotate
0.000000 0 m /five glyphshow
grestore
2 setlinecap
0.690 setgray
gsave
357.12 266.112 57.6 38.016 clipbox
57.6 117.45218 m
414.72 117.45218 l
stroke
grestore
0 setlinecap
0.000 setgray
gsave
/o {
gsave
newpath
translate
0.8 setlinewidth
1 setlinejoin

0 setlinecap

-0 0 m
-3.5 0 l

gsave
0.000 setgray
fill
grestore
stroke
grestore
} bind def
57.6 117.452 o
grestore
gsave

37.881250 113.655305 translate
0.000000 rotate
0.000000 0 m /one glyphshow
6.362305 0 m /zero glyphshow
grestore
2 setlinecap
0.690 setgray
gsave
357.12 266.112 57.6 38.016 clipbox
57.6 154.862144 m
414.72 154.862144 l
stroke
grestore
0 setlinecap
0.000 setgray
gsave
/o {
gsave
newpath
translate
0.8 setlinewidth
1 setlinejoin

0 setlinecap

-0 0 m
-3.5 0 l

gsave
0.000 setgray
fill
grestore
stroke
grestore
} bind def
57.6 154.862 o
grestore
gsave

37.881250 151.065269 translate
0.000000 rotate
0.000000 0 m /one glyphshow
6.362305 0 m /five glyphshow
grestore
2 setlinecap
0.690 setgray
gsave
357.12 266.112 57.6 38.016 clipbox
57.6 192.272108 m
414.72 192.272108 l
stroke
grestore
0 setlinecap
0.000 setgray
gsave
/o {
gsave
newpath
translate
0.8 setlinewidth
1 setlinejoin

0 setlinecap

-0 0 m
-3.5 0 l

gsave
0.000 setgray
fill
grestore
stroke
grestore
} bind def
57.6 192.272 o
grestore
gsave

37.881250 188.475233 translate
0.000000 rotate
0.000000 0 m /two glyphshow
6.362305 0 m /zero glyphshow
grestore
2 setlinecap
0.690 setgray
gsave
357.12 266.112 57.6 38.016 clipbox
57.6 229.682072 m
414.72 229.682072 l
stroke
grestore
0 setlinecap
0.000 setgray
gsave
/o {
gsave
newpath
translate
0.8 setlinewidth
1 setlinejoin

0 setlinecap

-0 0 m
-3.5 0 l

gsave
0.000 setgray
fill
grestore
stroke
grestore
} bind def
57.6 229.682 o
grestore
gsave

37.881250 225.885197 translate
0.000000 rotate
0.000000 0 m /two glyphshow
6.362305 0 m /five glyphshow
grestore
2 setlinecap
0.690 setgray
gsave
357.12 266.112 57.6 38.016 clipbox
57.6 267.092036 m
414.72 267.092036 l
stroke
grestore
0 setlinecap
0.000 setgray
gsave
/o {
gsave
newpath
translate
0.8 setlinewidth
1 setlinejoin

0 setlinecap

-0 0 m
-3.5 0 l

gsave
0.000 setgray
fill
grestore
stroke
grestore
} bind def
57.6 267.092 o
grestore
gsave

37.881250 263.295161 translate
0.000000 rotate
0.000000 0 m /three glyphshow
6.362305 0 m /zero glyphshow
grestore
1.500 setlinewidth
2 setlinecap
0.122 0.467 0.706 setrgbcolor
gsave
357.12 266.112 57.6 38.016 clipbox
73.832727 292.032 m
77.112066 292.032 l
80.391405 292.032 l
83.670744 292.032 l
86.950083 292.032 l
90.229421 292.032 l
93.50876 292.032 l
96.788099 292.032 l
100.067438 292.032 l
103.346777 292.032 l
106.626116 292.032 l
109.905455 292.032 l
113.184793 292.032 l
116.464132 292.032 l
119.743471 292.032 l
123.02281 292.032 l
126.302149 292.032 l
129.581488 292.032 l
132.860826 292.032 l
136.140165 292.032 l
139.419504 292.032 l
142.698843 292.032 l
145.978182 292.032 l
149.257521 292.032 l
152.53686 292.032 l
155.816198 292.032 l
159.095537 292.032 l
162.374876 292.032 l
165.654215 292.032 l
168.933554 292.032 l
172.212893 292.032 l
175.492231 292.031999 l
178.77157 292.031999 l
182.050909 292.031998 l
185.330248 292.031998 l
188.609587 292.031996 l
191.888926 292.031994 l
195.168264 292.031991 l
198.447603 292.031987 l
201.726942 292.03198 l
205.006281 292.03197 l
208.28562 292.031954 l
211.564959 292.03193 l
214.844298 292.031894 l
218.123636 292.031839 l
221.402975 292.031755 l
224.682314 292.031628 l
227.961653 292.031434 l
231.240992 292.03114 l
234.520331 292.030693 l
237.799669 292.030014 l
241.079008 292.028983 l
244.358347 292.027418 l
247.637686 292.025042 l
250.917025 292.02144 l
254.196364 292.015985 l
257.475702 292.00774 l
260.755041 291.995315 l
264.03438 291.976669 l
267.313719 291.948871 l
270.593058 291.907824 l
273.872397 291.848072 l
277.151736 291.762867 l
280.431074 291.644877 l
283.710413 291.487948 l
286.989752 291.29007 l
290.269091 291.056676 l
293.54843 290.802129 l
296.827769 290.547166 l
300.107107 290.312655 l
303.386446 290.113275 l
306.665785 289.954794 l
309.945124 289.835424 l
313.224463 289.74911 l
316.503802 289.688524 l
319.78314 289.646877 l
323.062479 289.618659 l
326.341818 289.599726 l
329.621157 289.587107 l
332.900496 289.578733 l
336.179835 289.573192 l
339.459174 289.569532 l
342.738512 289.567119 l
346.017851 289.565528 l
349.29719 289.564481 l
352.576529 289.563791 l
355.855868 289.563337 l
359.135207 289.563038 l
362.414545 289.562842 l
365.693884 289.562712 l
368.973223 289.562627 l
372.252562 289.562571 l
375.531901 289.562534 l
378.81124 289.56251 l
382.090579 289.562494 l
385.369917 289.562484 l
388.649256 289.562477 l
391.928595 289.562472 l
395.207934 289.562469 l
398.487273 289.562467 l
stroke
grestore
1.000 0.498 0.055 setrgbcolor
gsave
357.12 266.112 57.6 38.016 clipbox
73.832727 96.937037 m
77.112066 96.937037 l
80.391405 96.937037 l
83.670744 96.937037 l
86.950083 96.937037 l
90.229421 96.937037 l
93.50876 96.937037 l
96.788099 96.937037 l
100.067438 96.937037 l
103.346777 96.937037 l
106.626116 96.937037 l
109.905455 96.937037 l
113.184793 96.937037 l
116.464132 96.937037 l
119.743471 96.937037 l
123.02281 96.937037 l
126.302149 96.937037 l
129.581488 96.937037 l
132.860826 96.937037 l
136.140165 96.937037 l
139.419504 96.937037 l
142.698843 96.937037 l
145.978182 96.937037 l
149.257521 96.937037 l
152.53686 96.937037 l
155.816198 96.937037 l
159.095537 96.937037 l
162.374876 96.937037 l
165.654215 96.937037 l
168.933554 96.937037 l
172.212893 96.937037 l
175.492231 96.937037 l
178.77157 96.937037 l
182.050909 96.937037 l
185.330248 96.937037 l
188.609587 96.937037 l
191.888926 96.937037 l
195.168264 96.937037 l
198.447603 96.937037 l
201.726942 96.937036 l
205.006281 96.937036 l
208.28562 96.937035 l
211.564959 96.937034 l
214.844298 96.937032 l
218.123636 96.93703 l
221.402975 96.937026 l
224.682314 96.93702 l
227.961653 96.937011 l
231.240992 96.936997 l
234.520331 96.936976 l
237.799669 96.936944 l
241.079008 96.936895 l
244.358347 96.936822 l
247.637686 96.93671 l
250.917025 96.936541 l
254.196364 96.936284 l
257.475702 96.935896 l
260.755041 96.935311 l
264.03438 96.934434 l
267.313719 96.933125 l
270.593058 96.931191 l
273.872397 96.928375 l
277.151736 96.924355 l
280.431074 96.918781 l
283.710413 96.911356 l
286.989752 96.901971 l
290.269091 96.890873 l
293.54843 96.878731 l
296.827769 96.86653 l
300.107107 96.855274 l
303.386446 96.845677 l
306.665785 96.838032 l
309.945124 96.832263 l
313.224463 96.828086 l
316.503802 96.825152 l
319.78314 96.823133 l
323.062479 96.821765 l
326.341818 96.820847 l
329.621157 96.820235 l
332.900496 96.819828 l
336.179835 96.819559 l
339.459174 96.819382 l
342.738512 96.819265 l
346.017851 96.819188 l
349.29719 96.819137 l
352.576529 96.819103 l
355.855868 96.819081 l
359.135207 96.819067 l
362.414545 96.819057 l
365.693884 96.819051 l
368.973223 96.819047 l
372.252562 96.819044 l
375.531901 96.819042 l
378.81124 96.819041 l
382.090579 96.81904 l
385.369917 96.81904 l
388.649256 96.819039 l
391.928595 96.819039 l
395.207934 96.819039 l
398.487273 96.819039 l
stroke
grestore
0.173 0.627 0.173 setrgbcolor
gsave
357.12 266.112 57.6 38.016 clipbox
73.832727 73.101905 m
77.112066 73.101905 l
80.391405 73.101905 l
83.670744 73.101905 l
86.950083 73.101905 l
90.229421 73.101905 l
93.50876 73.101905 l
96.788099 73.101905 l
100.067438 73.101905 l
103.346777 73.101905 l
106.626116 73.101905 l
109.905455 73.101905 l
113.184793 73.101905 l
116.464132 73.101905 l
119.743471 73.101905 l
123.02281 73.101905 l
126.302149 73.101905 l
129.581488 73.101905 l
132.860826 73.101905 l
136.140165 73.101905 l
139.419504 73.101905 l
142.698843 73.101905 l
145.978182 73.101905 l
149.257521 73.101905 l
152.53686 73.101905 l
155.816198 73.101905 l
159.095537 73.101905 l
162.374876 73.101905 l
165.654215 73.101905 l
168.933554 73.101905 l
172.212893 73.101905 l
175.492231 73.101905 l
178.77157 73.101905 l
182.050909 73.101905 l
185.330248 73.101905 l
188.609587 73.101905 l
191.888926 73.101905 l
195.168264 73.101905 l
198.447603 73.101905 l
201.726942 73.101905 l
205.006281 73.101905 l
208.28562 73.101905 l
211.564959 73.101904 l
214.844298 73.101904 l
218.123636 73.101903 l
221.402975 73.101902 l
224.682314 73.1019 l
227.961653 73.101897 l
231.240992 73.101892 l
234.520331 73.101886 l
237.799669 73.101876 l
241.079008 73.101861 l
244.358347 73.101837 l
247.637686 73.101802 l
250.917025 73.101749 l
254.196364 73.101668 l
257.475702 73.101546 l
260.755041 73.101362 l
264.03438 73.101086 l
267.313719 73.100674 l
270.593058 73.100066 l
273.872397 73.09918 l
277.151736 73.097916 l
280.431074 73.096162 l
283.710413 73.093824 l
286.989752 73.09087 l
290.269091 73.087375 l
293.54843 73.08355 l
296.827769 73.079704 l
300.107107 73.076155 l
303.386446 73.073128 l
306.665785 73.070716 l
309.945124 73.068896 l
313.224463 73.067578 l
316.503802 73.066651 l
319.78314 73.066014 l
323.062479 73.065582 l
326.341818 73.065293 l
329.621157 73.065099 l
332.900496 73.064971 l
336.179835 73.064886 l
339.459174 73.06483 l
342.738512 73.064793 l
346.017851 73.064769 l
349.29719 73.064753 l
352.576529 73.064742 l
355.855868 73.064735 l
359.135207 73.064731 l
362.414545 73.064728 l
365.693884 73.064726 l
368.973223 73.064724 l
372.252562 73.064723 l
375.531901 73.064723 l
378.81124 73.064722 l
382.090579 73.064722 l
385.369917 73.064722 l
388.649256 73.064722 l
391.928595 73.064722 l
395.207934 73.064722 l
398.487273 73.064722 l
stroke
grestore
0.839 0.153 0.157 setrgbcolor
gsave
357.12 266.112 57.6 38.016 clipbox
73.832727 63.807703 m
77.112066 63.807703 l
80.391405 63.807703 l
83.670744 63.807703 l
86.950083 63.807703 l
90.229421 63.807703 l
93.50876 63.807703 l
96.788099 63.807703 l
100.067438 63.807703 l
103.346777 63.807703 l
106.626116 63.807703 l
109.905455 63.807703 l
113.184793 63.807703 l
116.464132 63.807703 l
119.743471 63.807703 l
123.02281 63.807703 l
126.302149 63.807703 l
129.581488 63.807703 l
132.860826 63.807703 l
136.140165 63.807703 l
139.419504 63.807703 l
142.698843 63.807703 l
145.978182 63.807703 l
149.257521 63.807703 l
152.53686 63.807703 l
155.816198 63.807703 l
159.095537 63.807703 l
162.374876 63.807703 l
165.654215 63.807703 l
168.933554 63.807703 l
172.212893 63.807703 l
175.492231 63.807703 l
178.77157 63.807703 l
182.050909 63.807703 l
185.330248 63.807703 l
188.609587 63.807703 l
191.888926 63.807703 l
195.168264 63.807703 l
198.447603 63.807703 l
201.726942 63.807702 l
205.006281 63.807702 l
208.28562 63.807702 l
211.564959 63.807702 l
214.844298 63.807702 l
218.123636 63.807701 l
221.402975 63.807701 l
224.682314 63.8077 l
227.961653 63.807699 l
231.240992 63.807696 l
234.520331 63.807693 l
237.799669 63.807688 l
241.079008 63.807681 l
244.358347 63.80767 l
247.637686 63.807653 l
250.917025 63.807627 l
254.196364 63.807588 l
257.475702 63.807529 l
260.755041 63.807441 l
264.03438 63.807307 l
267.313719 63.807108 l
270.593058 63.806815 l
273.872397 63.806387 l
277.151736 63.805776 l
280.431074 63.804929 l
283.710413 63.803801 l
286.989752 63.802374 l
290.269091 63.800685 l
293.54843 63.798837 l
296.827769 63.796979 l
300.107107 63.795264 l
303.386446 63.793801 l
306.665785 63.792635 l
309.945124 63.791755 l
313.224463 63.791118 l
316.503802 63.79067 l
319.78314 63.790362 l
323.062479 63.790153 l
326.341818 63.790013 l
329.621157 63.78992 l
332.900496 63.789858 l
336.179835 63.789817 l
339.459174 63.789789 l
342.738512 63.789772 l
346.017851 63.78976 l
349.29719 63.789752 l
352.576529 63.789747 l
355.855868 63.789744 l
359.135207 63.789741 l
362.414545 63.78974 l
365.693884 63.789739 l
368.973223 63.789738 l
372.252562 63.789738 l
375.531901 63.789738 l
378.81124 63.789737 l
382.090579 63.789737 l
385.369917 63.789737 l
388.649256 63.789737 l
391.928595 63.789737 l
395.207934 63.789737 l
398.487273 63.789737 l
stroke
grestore
0.580 0.404 0.741 setrgbcolor
gsave
357.12 266.112 57.6 38.016 clipbox
73.832727 58.85826 m
77.112066 58.85826 l
80.391405 58.85826 l
83.670744 58.85826 l
86.950083 58.85826 l
90.229421 58.85826 l
93.50876 58.85826 l
96.788099 58.85826 l
100.067438 58.85826 l
103.346777 58.85826 l
106.626116 58.85826 l
109.905455 58.85826 l
113.184793 58.85826 l
116.464132 58.85826 l
119.743471 58.85826 l
123.02281 58.85826 l
126.302149 58.85826 l
129.581488 58.85826 l
132.860826 58.85826 l
136.140165 58.85826 l
139.419504 58.85826 l
142.698843 58.85826 l
145.978182 58.85826 l
149.257521 58.85826 l
152.53686 58.85826 l
155.816198 58.85826 l
159.095537 58.85826 l
162.374876 58.85826 l
165.654215 58.85826 l
168.933554 58.85826 l
172.212893 58.85826 l
175.492231 58.85826 l
178.77157 58.85826 l
182.050909 58.85826 l
185.330248 58.85826 l
188.609587 58.85826 l
191.888926 58.85826 l
195.168264 58.85826 l
198.447603 58.85826 l
201.726942 58.85826 l
205.006281 58.85826 l
208.28562 58.85826 l
211.564959 58.85826 l
214.844298 58.858259 l
218.123636 58.858259 l
221.402975 58.858259 l
224.682314 58.858258 l
227.961653 58.858257 l
231.240992 58.858256 l
234.520331 58.858254 l
237.799669 58.858251 l
241.079008 58.858247 l
244.358347 58.858241 l
247.637686 58.858231 l
250.917025 58.858216 l
254.196364 58.858193 l
257.475702 58.858158 l
260.755041 58.858106 l
264.03438 58.858028 l
267.313719 58.857911 l
270.593058 58.857739 l
273.872397 58.857487 l
277.151736 58.857129 l
280.431074 58.856632 l
283.710413 58.855969 l
286.989752 58.855131 l
290.269091 58.85414 l
293.54843 58.853054 l
296.827769 58.851963 l
300.107107 58.850956 l
303.386446 58.850096 l
306.665785 58.849412 l
309.945124 58.848895 l
313.224463 58.84852 l
316.503802 58.848257 l
319.78314 58.848076 l
323.062479 58.847953 l
326.341818 58.847871 l
329.621157 58.847816 l
332.900496 58.84778 l
336.179835 58.847756 l
339.459174 58.84774 l
342.738512 58.847729 l
346.017851 58.847722 l
349.29719 58.847718 l
352.576529 58.847715 l
355.855868 58.847713 l
359.135207 58.847711 l
362.414545 58.847711 l
365.693884 58.84771 l
368.973223 58.84771 l
372.252562 58.847709 l
375.531901 58.847709 l
378.81124 58.847709 l
382.090579 58.847709 l
385.369917 58.847709 l
388.649256 58.847709 l
391.928595 58.847709 l
395.207934 58.847709 l
398.487273 58.847709 l
stroke
grestore
0.549 0.337 0.294 setrgbcolor
gsave
357.12 266.112 57.6 38.016 clipbox
73.832727 55.784192 m
77.112066 55.784192 l
80.391405 55.784192 l
83.670744 55.784192 l
86.950083 55.784192 l
90.229421 55.784192 l
93.50876 55.784192 l
96.788099 55.784192 l
100.067438 55.784192 l
103.346777 55.784192 l
106.626116 55.784192 l
109.905455 55.784192 l
113.184793 55.784192 l
116.464132 55.784192 l
119.743471 55.784192 l
123.02281 55.784192 l
126.302149 55.784192 l
129.581488 55.784192 l
132.860826 55.784192 l
136.140165 55.784192 l
139.419504 55.784192 l
142.698843 55.784192 l
145.978182 55.784192 l
149.257521 55.784192 l
152.53686 55.784192 l
155.816198 55.784192 l
159.095537 55.784192 l
162.374876 55.784192 l
165.654215 55.784192 l
168.933554 55.784192 l
172.212893 55.784192 l
175.492231 55.784192 l
178.77157 55.784192 l
182.050909 55.784192 l
185.330248 55.784192 l
188.609587 55.784192 l
191.888926 55.784192 l
195.168264 55.784192 l
198.447603 55.784192 l
201.726942 55.784192 l
205.006281 55.784192 l
208.28562 55.784192 l
211.564959 55.784192 l
214.844298 55.784192 l
218.123636 55.784191 l
221.402975 55.784191 l
224.682314 55.784191 l
227.961653 55.78419 l
231.240992 55.784189 l
234.520331 55.784188 l
237.799669 55.784186 l
241.079008 55.784183 l
244.358347 55.784179 l
247.637686 55.784173 l
250.917025 55.784163 l
254.196364 55.784148 l
257.475702 55.784125 l
260.755041 55.784091 l
264.03438 55.784039 l
267.313719 55.783963 l
270.593058 55.783849 l
273.872397 55.783684 l
277.151736 55.783449 l
280.431074 55.783122 l
283.710413 55.782687 l
286.989752 55.782136 l
290.269091 55.781485 l
293.54843 55.780772 l
296.827769 55.780055 l
300.107107 55.779393 l
303.386446 55.778828 l
306.665785 55.778378 l
309.945124 55.778038 l
313.224463 55.777792 l
316.503802 55.777619 l
319.78314 55.777501 l
323.062479 55.77742 l
326.341818 55.777366 l
329.621157 55.77733 l
332.900496 55.777306 l
336.179835 55.77729 l
339.459174 55.777279 l
342.738512 55.777273 l
346.017851 55.777268 l
349.29719 55.777265 l
352.576529 55.777263 l
355.855868 55.777262 l
359.135207 55.777261 l
362.414545 55.77726 l
365.693884 55.77726 l
368.973223 55.77726 l
372.252562 55.77726 l
375.531901 55.777259 l
378.81124 55.777259 l
382.090579 55.777259 l
385.369917 55.777259 l
388.649256 55.777259 l
391.928595 55.777259 l
395.207934 55.777259 l
398.487273 55.777259 l
stroke
grestore
0.890 0.467 0.761 setrgbcolor
gsave
357.12 266.112 57.6 38.016 clipbox
73.832727 53.689384 m
77.112066 53.689384 l
80.391405 53.689384 l
83.670744 53.689384 l
86.950083 53.689384 l
90.229421 53.689384 l
93.50876 53.689384 l
96.788099 53.689384 l
100.067438 53.689384 l
103.346777 53.689384 l
106.626116 53.689384 l
109.905455 53.689384 l
113.184793 53.689384 l
116.464132 53.689384 l
119.743471 53.689384 l
123.02281 53.689384 l
126.302149 53.689384 l
129.581488 53.689384 l
132.860826 53.689384 l
136.140165 53.689384 l
139.419504 53.689384 l
142.698843 53.689384 l
145.978182 53.689384 l
149.257521 53.689384 l
152.53686 53.689384 l
155.816198 53.689384 l
159.095537 53.689384 l
162.374876 53.689384 l
165.654215 53.689384 l
168.933554 53.689384 l
172.212893 53.689384 l
175.492231 53.689384 l
178.77157 53.689384 l
182.050909 53.689384 l
185.330248 53.689384 l
188.609587 53.689384 l
191.888926 53.689384 l
195.168264 53.689384 l
198.447603 53.689384 l
201.726942 53.689384 l
205.006281 53.689383 l
208.28562 53.689383 l
211.564959 53.689383 l
214.844298 53.689383 l
218.123636 53.689383 l
221.402975 53.689383 l
224.682314 53.689383 l
227.961653 53.689382 l
231.240992 53.689382 l
234.520331 53.689381 l
237.799669 53.68938 l
241.079008 53.689378 l
244.358347 53.689375 l
247.637686 53.68937 l
250.917025 53.689363 l
254.196364 53.689352 l
257.475702 53.689336 l
260.755041 53.689312 l
264.03438 53.689276 l
267.313719 53.689222 l
270.593058 53.689142 l
273.872397 53.689025 l
277.151736 53.688858 l
280.431074 53.688628 l
283.710413 53.68832 l
286.989752 53.687931 l
290.269091 53.68747 l
293.54843 53.686966 l
296.827769 53.686459 l
300.107107 53.685992 l
303.386446 53.685592 l
306.665785 53.685274 l
309.945124 53.685034 l
313.224463 53.68486 l
316.503802 53.684738 l
319.78314 53.684654 l
323.062479 53.684597 l
326.341818 53.684558 l
329.621157 53.684533 l
332.900496 53.684516 l
336.179835 53.684505 l
339.459174 53.684497 l
342.738512 53.684492 l
346.017851 53.684489 l
349.29719 53.684487 l
352.576529 53.684486 l
355.855868 53.684485 l
359.135207 53.684484 l
362.414545 53.684484 l
365.693884 53.684484 l
368.973223 53.684483 l
372.252562 53.684483 l
375.531901 53.684483 l
378.81124 53.684483 l
382.090579 53.684483 l
385.369917 53.684483 l
388.649256 53.684483 l
391.928595 53.684483 l
395.207934 53.684483 l
398.487273 53.684483 l
stroke
grestore
0.498 setgray
gsave
357.12 266.112 57.6 38.016 clipbox
73.832727 52.170202 m
77.112066 52.170202 l
80.391405 52.170202 l
83.670744 52.170202 l
86.950083 52.170202 l
90.229421 52.170202 l
93.50876 52.170202 l
96.788099 52.170202 l
100.067438 52.170202 l
103.346777 52.170202 l
106.626116 52.170202 l
109.905455 52.170202 l
113.184793 52.170202 l
116.464132 52.170202 l
119.743471 52.170202 l
123.02281 52.170202 l
126.302149 52.170202 l
129.581488 52.170202 l
132.860826 52.170202 l
136.140165 52.170202 l
139.419504 52.170202 l
142.698843 52.170202 l
145.978182 52.170202 l
149.257521 52.170202 l
152.53686 52.170202 l
155.816198 52.170202 l
159.095537 52.170202 l
162.374876 52.170202 l
165.654215 52.170202 l
168.933554 52.170202 l
172.212893 52.170202 l
175.492231 52.170202 l
178.77157 52.170202 l
182.050909 52.170202 l
185.330248 52.170202 l
188.609587 52.170202 l
191.888926 52.170202 l
195.168264 52.170202 l
198.447603 52.170202 l
201.726942 52.170202 l
205.006281 52.170202 l
208.28562 52.170202 l
211.564959 52.170202 l
214.844298 52.170202 l
218.123636 52.170202 l
221.402975 52.170202 l
224.682314 52.170202 l
227.961653 52.170202 l
231.240992 52.170201 l
234.520331 52.170201 l
237.799669 52.1702 l
241.079008 52.170198 l
244.358347 52.170196 l
247.637686 52.170192 l
250.917025 52.170187 l
254.196364 52.170179 l
257.475702 52.170167 l
260.755041 52.170149 l
264.03438 52.170122 l
267.313719 52.170082 l
270.593058 52.170022 l
273.872397 52.169936 l
277.151736 52.169812 l
280.431074 52.16964 l
283.710413 52.169411 l
286.989752 52.169122 l
290.269091 52.168779 l
293.54843 52.168404 l
296.827769 52.168027 l
300.107107 52.167678 l
303.386446 52.167381 l
306.665785 52.167145 l
309.945124 52.166966 l
313.224463 52.166836 l
316.503802 52.166745 l
319.78314 52.166683 l
323.062479 52.16664 l
326.341818 52.166612 l
329.621157 52.166593 l
332.900496 52.16658 l
336.179835 52.166572 l
339.459174 52.166567 l
342.738512 52.166563 l
346.017851 52.166561 l
349.29719 52.166559 l
352.576529 52.166558 l
355.855868 52.166557 l
359.135207 52.166557 l
362.414545 52.166556 l
365.693884 52.166556 l
368.973223 52.166556 l
372.252562 52.166556 l
375.531901 52.166556 l
378.81124 52.166556 l
382.090579 52.166556 l
385.369917 52.166556 l
388.649256 52.166556 l
391.928595 52.166556 l
395.207934 52.166556 l
398.487273 52.166556 l
stroke
grestore
0.737 0.741 0.133 setrgbcolor
gsave
357.12 266.112 57.6 38.016 clipbox
73.832727 51.018047 m
77.112066 51.018047 l
80.391405 51.018047 l
83.670744 51.018047 l
86.950083 51.018047 l
90.229421 51.018047 l
93.50876 51.018047 l
96.788099 51.018047 l
100.067438 51.018047 l
103.346777 51.018047 l
106.626116 51.018047 l
109.905455 51.018047 l
113.184793 51.018047 l
116.464132 51.018047 l
119.743471 51.018047 l
123.02281 51.018047 l
126.302149 51.018047 l
129.581488 51.018047 l
132.860826 51.018047 l
136.140165 51.018047 l
139.419504 51.018047 l
142.698843 51.018047 l
145.978182 51.018047 l
149.257521 51.018047 l
152.53686 51.018047 l
155.816198 51.018047 l
159.095537 51.018047 l
162.374876 51.018047 l
165.654215 51.018047 l
168.933554 51.018047 l
172.212893 51.018047 l
175.492231 51.018047 l
178.77157 51.018047 l
182.050909 51.018047 l
185.330248 51.018047 l
188.609587 51.018046 l
191.888926 51.018046 l
195.168264 51.018046 l
198.447603 51.018046 l
201.726942 51.018046 l
205.006281 51.018046 l
208.28562 51.018046 l
211.564959 51.018046 l
214.844298 51.018046 l
218.123636 51.018046 l
221.402975 51.018046 l
224.682314 51.018046 l
227.961653 51.018046 l
231.240992 51.018046 l
234.520331 51.018045 l
237.799669 51.018044 l
241.079008 51.018043 l
244.358347 51.018041 l
247.637686 51.018039 l
250.917025 51.018035 l
254.196364 51.018029 l
257.475702 51.018019 l
260.755041 51.018005 l
264.03438 51.017985 l
267.313719 51.017953 l
270.593058 51.017907 l
273.872397 51.01784 l
277.151736 51.017745 l
280.431074 51.017612 l
283.710413 51.017435 l
286.989752 51.017211 l
290.269091 51.016946 l
293.54843 51.016656 l
296.827769 51.016365 l
300.107107 51.016095 l
303.386446 51.015866 l
306.665785 51.015683 l
309.945124 51.015545 l
313.224463 51.015444 l
316.503802 51.015374 l
319.78314 51.015326 l
323.062479 51.015293 l
326.341818 51.015271 l
329.621157 51.015256 l
332.900496 51.015246 l
336.179835 51.01524 l
339.459174 51.015236 l
342.738512 51.015233 l
346.017851 51.015231 l
349.29719 51.01523 l
352.576529 51.015229 l
355.855868 51.015229 l
359.135207 51.015228 l
362.414545 51.015228 l
365.693884 51.015228 l
368.973223 51.015228 l
372.252562 51.015228 l
375.531901 51.015228 l
378.81124 51.015228 l
382.090579 51.015228 l
385.369917 51.015228 l
388.649256 51.015228 l
391.928595 51.015228 l
395.207934 51.015228 l
398.487273 51.015228 l
stroke
grestore
0.090 0.745 0.812 setrgbcolor
gsave
357.12 266.112 57.6 38.016 clipbox
73.832727 50.114244 m
77.112066 50.114244 l
80.391405 50.114244 l
83.670744 50.114244 l
86.950083 50.114244 l
90.229421 50.114244 l
93.50876 50.114244 l
96.788099 50.114244 l
100.067438 50.114244 l
103.346777 50.114244 l
106.626116 50.114244 l
109.905455 50.114244 l
113.184793 50.114244 l
116.464132 50.114244 l
119.743471 50.114244 l
123.02281 50.114244 l
126.302149 50.114244 l
129.581488 50.114244 l
132.860826 50.114244 l
136.140165 50.114244 l
139.419504 50.114244 l
142.698843 50.114244 l
145.978182 50.114244 l
149.257521 50.114244 l
152.53686 50.114244 l
155.816198 50.114244 l
159.095537 50.114244 l
162.374876 50.114244 l
165.654215 50.114244 l
168.933554 50.114244 l
172.212893 50.114244 l
175.492231 50.114244 l
178.77157 50.114244 l
182.050909 50.114244 l
185.330248 50.114244 l
188.609587 50.114244 l
191.888926 50.114244 l
195.168264 50.114244 l
198.447603 50.114244 l
201.726942 50.114244 l
205.006281 50.114244 l
208.28562 50.114244 l
211.564959 50.114244 l
214.844298 50.114244 l
218.123636 50.114244 l
221.402975 50.114244 l
224.682314 50.114244 l
227.961653 50.114244 l
231.240992 50.114243 l
234.520331 50.114243 l
237.799669 50.114242 l
241.079008 50.114241 l
244.358347 50.11424 l
247.637686 50.114238 l
250.917025 50.114235 l
254.196364 50.11423 l
257.475702 50.114223 l
260.755041 50.114211 l
264.03438 50.114195 l
267.313719 50.11417 l
270.593058 50.114133 l
273.872397 50.11408 l
277.151736 50.114004 l
280.431074 50.113898 l
283.710413 50.113757 l
286.989752 50.113579 l
290.269091 50.113368 l
293.54843 50.113137 l
296.827769 50.112905 l
300.107107 50.112691 l
303.386446 50.112508 l
306.665785 50.112362 l
309.945124 50.112252 l
313.224463 50.112173 l
316.503802 50.112117 l
319.78314 50.112078 l
323.062479 50.112052 l
326.341818 50.112035 l
329.621157 50.112023 l
332.900496 50.112015 l
336.179835 50.11201 l
339.459174 50.112007 l
342.738512 50.112004 l
346.017851 50.112003 l
349.29719 50.112002 l
352.576529 50.112001 l
355.855868 50.112001 l
359.135207 50.112001 l
362.414545 50.112 l
365.693884 50.112 l
368.973223 50.112 l
372.252562 50.112 l
375.531901 50.112 l
378.81124 50.112 l
382.090579 50.112 l
385.369917 50.112 l
388.649256 50.112 l
391.928595 50.112 l
395.207934 50.112 l
398.487273 50.112 l
stroke
grestore
0.800 setlinewidth
0 setlinejoin
0.000 setgray
gsave
57.6 38.016 m
57.6 304.128 l
stroke
grestore
gsave
414.72 38.016 m
414.72 304.128 l
stroke
grestore
gsave
57.6 38.016 m
414.72 38.016 l
stroke
grestore
gsave
57.6 304.128 m
414.72 304.128 l
stroke
grestore
1.000 setlinewidth
0 setlinecap
0.800 setgray
gsave
331.87625 149.40925 m
407.72 149.40925 l
409.053333 149.40925 409.72 150.075917 409.72 151.40925 c
409.72 297.128 l
409.72 298.461333 409.053333 299.128 407.72 299.128 c
331.87625 299.128 l
330.542917 299.128 329.87625 298.461333 329.87625 297.128 c
329.87625 151.40925 l
329.87625 150.075917 330.542917 149.40925 331.87625 149.40925 c
cl
gsave
1.000 setgray
fill
grestore
stroke
grestore
1.500 setlinewidth
1 setlinejoin
2 setlinecap
0.122 0.467 0.706 setrgbcolor
gsave
333.87625 291.03425 m
343.87625 291.03425 l
353.87625 291.03425 l
stroke
grestore
0.000 setgray
gsave

361.876250 287.534250 translate
0.000000 rotate
0.000000 0 m /A glyphshow
6.840820 0 m /equal glyphshow
15.219727 0 m /zero glyphshow
21.582031 0 m /period glyphshow
24.760742 0 m /zero glyphshow
31.123047 0 m /one glyphshow
grestore
1.000 0.498 0.055 setrgbcolor
gsave
333.87625 276.362375 m
343.87625 276.362375 l
353.87625 276.362375 l
stroke
grestore
0.000 setgray
gsave

361.876250 272.862375 translate
0.000000 rotate
0.000000 0 m /A glyphshow
6.840820 0 m /equal glyphshow
15.219727 0 m /zero glyphshow
21.582031 0 m /period glyphshow
24.760742 0 m /zero glyphshow
31.123047 0 m /four glyphshow
37.485352 0 m /six glyphshow
grestore
0.173 0.627 0.173 setrgbcolor
gsave
333.87625 261.6905 m
343.87625 261.6905 l
353.87625 261.6905 l
stroke
grestore
0.000 setgray
gsave

361.876250 258.190500 translate
0.000000 rotate
0.000000 0 m /A glyphshow
6.840820 0 m /equal glyphshow
15.219727 0 m /zero glyphshow
21.582031 0 m /period glyphshow
24.760742 0 m /zero glyphshow
31.123047 0 m /eight glyphshow
37.485352 0 m /two glyphshow
grestore
0.839 0.153 0.157 setrgbcolor
gsave
333.87625 247.018625 m
343.87625 247.018625 l
353.87625 247.018625 l
stroke
grestore
0.000 setgray
gsave

361.876250 243.518625 translate
0.000000 rotate
0.000000 0 m /A glyphshow
6.840820 0 m /equal glyphshow
15.219727 0 m /zero glyphshow
21.582031 0 m /period glyphshow
24.760742 0 m /one glyphshow
31.123047 0 m /two glyphshow
grestore
0.580 0.404 0.741 setrgbcolor
gsave
333.87625 232.34675 m
343.87625 232.34675 l
353.87625 232.34675 l
stroke
grestore
0.000 setgray
gsave

361.876250 228.846750 translate
0.000000 rotate
0.000000 0 m /A glyphshow
6.840820 0 m /equal glyphshow
15.219727 0 m /zero glyphshow
21.582031 0 m /period glyphshow
24.760742 0 m /one glyphshow
31.123047 0 m /five glyphshow
grestore
0.549 0.337 0.294 setrgbcolor
gsave
333.87625 217.674875 m
343.87625 217.674875 l
353.87625 217.674875 l
stroke
grestore
0.000 setgray
gsave

361.876250 214.174875 translate
0.000000 rotate
0.000000 0 m /A glyphshow
6.840820 0 m /equal glyphshow
15.219727 0 m /zero glyphshow
21.582031 0 m /period glyphshow
24.760742 0 m /one glyphshow
31.123047 0 m /nine glyphshow
grestore
0.890 0.467 0.761 setrgbcolor
gsave
333.87625 203.003 m
343.87625 203.003 l
353.87625 203.003 l
stroke
grestore
0.000 setgray
gsave

361.876250 199.503000 translate
0.000000 rotate
0.000000 0 m /A glyphshow
6.840820 0 m /equal glyphshow
15.219727 0 m /zero glyphshow
21.582031 0 m /period glyphshow
24.760742 0 m /two glyphshow
31.123047 0 m /three glyphshow
grestore
0.498 setgray
gsave
333.87625 188.331125 m
343.87625 188.331125 l
353.87625 188.331125 l
stroke
grestore
0.000 setgray
gsave

361.876250 184.831125 translate
0.000000 rotate
0.000000 0 m /A glyphshow
6.840820 0 m /equal glyphshow
15.219727 0 m /zero glyphshow
21.582031 0 m /period glyphshow
24.760742 0 m /two glyphshow
31.123047 0 m /six glyphshow
grestore
0.737 0.741 0.133 setrgbcolor
gsave
333.87625 173.65925 m
343.87625 173.65925 l
353.87625 173.65925 l
stroke
grestore
0.000 setgray
gsave

361.876250 170.159250 translate
0.000000 rotate
0.000000 0 m /A glyphshow
6.840820 0 m /equal glyphshow
15.219727 0 m /zero glyphshow
21.582031 0 m /period glyphshow
24.760742 0 m /three glyphshow
grestore
0.090 0.745 0.812 setrgbcolor
gsave
333.87625 158.987375 m
343.87625 158.987375 l
353.87625 158.987375 l
stroke
grestore
0.000 setgray
gsave

361.876250 155.487375 translate
0.000000 rotate
0.000000 0 m /A glyphshow
6.840820 0 m /equal glyphshow
15.219727 0 m /zero glyphshow
21.582031 0 m /period glyphshow
24.760742 0 m /three glyphshow
31.123047 0 m /three glyphshow
grestore

end
showpage
